module gitlab.oit.duke.edu/devil-ops/terraform-provider-aka

go 1.23

require (
	github.com/hashicorp/terraform-plugin-sdk/v2 v2.4.4
	gitlab.oit.duke.edu/devil-ops/aka-sdk v0.0.7
)

require (
	cloud.google.com/go v0.61.0 // indirect
	cloud.google.com/go/storage v1.10.0 // indirect
	github.com/agext/levenshtein v1.2.2 // indirect
	github.com/apparentlymart/go-textseg/v12 v12.0.0 // indirect
	github.com/aws/aws-sdk-go v1.25.3 // indirect
	github.com/bgentry/go-netrc v0.0.0-20140422174119-9fd32a8b3d3d // indirect
	github.com/davecgh/go-spew v1.1.1 // indirect
	github.com/fatih/color v1.7.0 // indirect
	github.com/golang/groupcache v0.0.0-20200121045136-8c9f03a8e57e // indirect
	github.com/golang/protobuf v1.4.2 // indirect
	github.com/google/go-cmp v0.5.2 // indirect
	github.com/googleapis/gax-go/v2 v2.0.5 // indirect
	github.com/hashicorp/errwrap v1.0.0 // indirect
	github.com/hashicorp/go-checkpoint v0.5.0 // indirect
	github.com/hashicorp/go-cleanhttp v0.5.1 // indirect
	github.com/hashicorp/go-cty v1.4.1-0.20200414143053-d3edf31b6320 // indirect
	github.com/hashicorp/go-getter v1.5.0 // indirect
	github.com/hashicorp/go-hclog v0.15.0 // indirect
	github.com/hashicorp/go-multierror v1.0.0 // indirect
	github.com/hashicorp/go-plugin v1.4.0 // indirect
	github.com/hashicorp/go-safetemp v1.0.0 // indirect
	github.com/hashicorp/go-uuid v1.0.1 // indirect
	github.com/hashicorp/go-version v1.2.1 // indirect
	github.com/hashicorp/hcl/v2 v2.8.2 // indirect
	github.com/hashicorp/logutils v1.0.0 // indirect
	github.com/hashicorp/terraform-exec v0.13.0 // indirect
	github.com/hashicorp/terraform-json v0.8.0 // indirect
	github.com/hashicorp/terraform-plugin-go v0.2.1 // indirect
	github.com/hashicorp/yamux v0.0.0-20181012175058-2f1d1f20f75d // indirect
	github.com/jmespath/go-jmespath v0.0.0-20180206201540-c2b33e8439af // indirect
	github.com/jstemmer/go-junit-report v0.9.1 // indirect
	github.com/mattn/go-colorable v0.1.4 // indirect
	github.com/mattn/go-isatty v0.0.10 // indirect
	github.com/mitchellh/copystructure v1.0.0 // indirect
	github.com/mitchellh/go-homedir v1.1.0 // indirect
	github.com/mitchellh/go-testing-interface v1.0.4 // indirect
	github.com/mitchellh/go-wordwrap v1.0.0 // indirect
	github.com/mitchellh/mapstructure v1.1.2 // indirect
	github.com/mitchellh/reflectwalk v1.0.1 // indirect
	github.com/oklog/run v1.0.0 // indirect
	github.com/sirupsen/logrus v1.8.1 // indirect
	github.com/ulikunitz/xz v0.5.8 // indirect
	github.com/vmihailenco/msgpack v4.0.4+incompatible // indirect
	github.com/zclconf/go-cty v1.7.1 // indirect
	go.opencensus.io v0.22.4 // indirect
	golang.org/x/crypto v0.0.0-20200622213623-75b288015ac9 // indirect
	golang.org/x/lint v0.0.0-20200302205851-738671d3881b // indirect
	golang.org/x/mod v0.3.0 // indirect
	golang.org/x/net v0.0.0-20201224014010-6772e930b67b // indirect
	golang.org/x/oauth2 v0.0.0-20200107190931-bf48bf16ab8d // indirect
	golang.org/x/sys v0.0.0-20201119102817-f84b799fce68 // indirect
	golang.org/x/text v0.3.3 // indirect
	golang.org/x/tools v0.0.0-20200713011307-fd294ab11aed // indirect
	golang.org/x/xerrors v0.0.0-20200804184101-5ec99f83aff1 // indirect
	google.golang.org/api v0.29.0 // indirect
	google.golang.org/appengine v1.6.6 // indirect
	google.golang.org/genproto v0.0.0-20200904004341-0bd0a958aa1d // indirect
	google.golang.org/grpc v1.32.0 // indirect
	google.golang.org/protobuf v1.25.0 // indirect
)
